Week 02:
…
---
# Overall distribution of evaluations

```r
eval_df %>%
  gather(
    key = "Evaluation",
    value = "Score"
  ) -> plot_df
plot_df
```

```
# A tibble: 63 × 2
   Evaluation Score
   <chr>      <dbl>
 1 Instructor    70
 2 Instructor    91
 3 Instructor   100
 4 Instructor    64
 5 Instructor    94
 6 Instructor    77
 7 Instructor    75
 8 Instructor   100
 9 Instructor   100
10 Lectures      39
# … with 53 more rows
```
…
The code below helps us see what's happening inside our mutate function, when we group by `state`

```r
covid_us %>%
  filter(date >= "2020-04-01" & date < "2020-04-07")%>%
  group_by(state) %>%
  select(state, date, confirmed)%>%
  mutate(
    confirmed_lag1 = lag(confirmed),
    new_cases = confirmed - lag(confirmed)
  )
```

```
# A tibble: 306 × 5
# Groups:   state [51]
   state      date       confirmed confirmed_lag1 new_cases
   <chr>      <date>         <int>          <int>     <int>
 1 Minnesota  2020-04-01       689             NA        NA
 2 Minnesota  2020-04-02       742            689        53
 3 Minnesota  2020-04-03       789            742        47
 4 Minnesota  2020-04-04       865            789        76
 5 Minnesota  2020-04-05       935            865        70
 6 Minnesota  2020-04-06       986            935        51
 7 California 2020-04-01      9857             NA        NA
 8 California 2020-04-02     11190           9857      1333
 9 California 2020-04-03     12569          11190      1379
10 California 2020-04-04     13796          12569      1227
# … with 296 more rows
```
…
If we hadn't grouped by state, we might calculate the difference between MN and CA

```r
covid_us %>%
  filter(date >= "2020-04-01" & date < "2020-04-07")%>%
  ungroup() %>%
  select(state, date, confirmed)%>%
  mutate(
    confirmed_lag1 = lag(confirmed),
    new_cases = confirmed - lag(confirmed)
  )
```

```
# A tibble: 306 × 5
   state      date       confirmed confirmed_lag1 new_cases
   <chr>      <date>         <int>          <int>     <int>
 1 Minnesota  2020-04-01       689             NA        NA
 2 Minnesota  2020-04-02       742            689        53
 3 Minnesota  2020-04-03       789            742        47
 4 Minnesota  2020-04-04       865            789        76
 5 Minnesota  2020-04-05       935            865        70
 6 Minnesota  2020-04-06       986            935        51
 7 California 2020-04-01      9857            986      8871
 8 California 2020-04-02     11190           9857      1333
 9 California 2020-04-03     12569          11190      1379
10 California 2020-04-04     13796          12569      1227
# … with 296 more rows
```
…
---
## Created a variable called `face_masks`

To understand what that last chunk of code did, it's helpful to look at the two variables

```r
covid_us%>%
  filter(state == "Illinois", date > "2020-9-28") %>%
  select(facial_coverings, face_masks)
```

```
# A tibble: 497 × 3
# Groups:   state [1]
   state    facial_coverings face_masks        
   <chr>               <int> <fct>             
 1 Illinois                2 Some requirements 
 2 Illinois                2 Some requirements 
 3 Illinois               -4 Required all times
 4 Illinois               -4 Required all times
 5 Illinois               -4 Required all times
 6 Illinois               -4 Required all times
 7 Illinois               -4 Required all times
 8 Illinois               -4 Required all times
 9 Illinois               -4 Required all times
10 Illinois               -4 Required all times
# … with 487 more rows
```
…
