Week 05:
…
---
## Calculating a Rolling Average New Cases

```r
covid_us %>%
  filter(date > "2020-03-05") %>%
  select(date,new_cases_pc,new_cases_pc_7da)
```

```
# A tibble: 36,974 × 4
# Groups:   state [51]
   state     date       new_cases_pc new_cases_pc_7da
   <chr>     <date>            <dbl>            <dbl>
 1 Minnesota 2020-03-06      NA               NA     
 2 Minnesota 2020-03-07       0               NA     
 3 Minnesota 2020-03-08       0.0177          NA     
 4 Minnesota 2020-03-09       0               NA     
 5 Minnesota 2020-03-10       0.0177          NA     
 6 Minnesota 2020-03-11       0.0355          NA     
 7 Minnesota 2020-03-12       0.0709          NA     
 8 Minnesota 2020-03-13       0.0887           0.0329
 9 Minnesota 2020-03-14       0.124            0.0507
10 Minnesota 2020-03-15       0.248            0.0836
# … with 36,964 more rows
```
…
