POLS 1600 - Week 02:
…
Overall distribution of evaluations

eval_df %>%
  gather(
    key = "Evaluation",
    value = "Score"
  ) -> plot_df
plot_df

# A tibble: 63 × 2
   Evaluation Score
   <chr>      <dbl>
 1 Instructor    70
 2 Instructor    91
 3 Instructor   100
 4 Instructor    64
 5 Instructor    94
 6 Instructor    77
 7 Instructor    75
 8 Instructor   100
 9 Instructor   100
10 Lectures      39
# ℹ 53 more rows
…
