POLS 1600
…
Tidy Census Data

Task
-Old
-Tidy
-New

get_acs() returns data whose unit of analysis is roughly a state-variable

We need to reshape acs_df using pivot_wider() so that the unit of analysis is just a state, and each column variable is a column

acs_df

# A tibble: 104 × 5
   GEOID NAME       variable   estimate    moe
   <chr> <chr>      <chr>         <dbl>  <dbl>
 1 01    Alabama    med_age        39      0.2
 2 01    Alabama    med_income  50536    304  
 3 02    Alaska     med_age        34.3    0.1
 4 02    Alaska     med_income  77640   1015  
 5 04    Arizona    med_age        37.7    0.2
 6 04    Arizona    med_income  58945    266  
 7 05    Arkansas   med_age        38.1    0.1
 8 05    Arkansas   med_income  47597    328  
 9 06    California med_age        36.5    0.1
10 06    California med_income  75235    232  
# ℹ 94 more rows

acs_df %>%
  mutate(
    state = NAME,
  ) %>%
  select(state, variable, estimate) %>%
  pivot_wider(names_from = variable,
              values_from = estimate) -> acs_df

acs_df

# A tibble: 52 × 3
   state                med_age med_income
   <chr>                  <dbl>      <dbl>
 1 Alabama                 39        50536
 2 Alaska                  34.3      77640
 3 Arizona                 37.7      58945
 4 Arkansas                38.1      47597
 5 California              36.5      75235
 6 Colorado                36.7      72331
 7 Connecticut             41        78444
 8 Delaware                40.6      68287
 9 District of Columbia    34        86420
10 Florida                 42        55660
# ℹ 42 more rows
…
length(the_vars)

[1] 10

dim(covid_lab)

[1] 51 10

covid_lab

# A tibble: 51 × 10
   state       state_po date       new_deaths_pc_14day percent_vaccinated winner
   <chr>       <I<chr>> <date>                   <dbl>              <dbl> <fct> 
 1 Minnesota   MN       2021-09-23               0.222               61.0 Biden 
 2 California  CA       2021-09-23               0.295               60.8 Biden 
 3 Florida     FL       2021-09-23               1.61                58.4 Trump 
 4 Wyoming     WY       2021-09-23               0.938               43.9 Trump 
 5 South Dako… SD       2021-09-23               0.291               52.4 Trump 
 6 Kansas      KS       2021-09-23               0.559               53.9 Trump 
 7 Nevada      NV       2021-09-23               0.700               51.8 Biden 
 8 Virginia    VA       2021-09-23               0.379               62.5 Biden 
 9 Washington  WA       2021-09-23               0.532               63.2 Biden 
10 Oregon      OR       2021-09-23               0.439               62.3 Biden 
# ℹ 41 more rows
# ℹ 4 more variables: rep_voteshare <dbl>, med_age <dbl>, med_income <dbl>,
#   population <int>
…
