POLS 1600 - Week 10:
…
mu_age_samp_dist_n25 <- tibble(
  sim = 1:n_sims,
  distribution = "Sampling",
  sample = "Population"
) %>%
  mutate(
    samp = purrr::map(sim, ~ slice_sample(df_drww, n = samp_size, replace = F)),
    estimate = purrr::map_dbl(samp, ~ mean(.$age))
  )

mu_age_samp_dist_n25

# A tibble: 1,000 × 5
     sim distribution sample     samp           estimate
   <int> <chr>        <chr>      <list>            <dbl>
 1     1 Sampling     Population <df [25 × 42]>     43.4
 2     2 Sampling     Population <df [25 × 42]>     39.4
 3     3 Sampling     Population <df [25 × 42]>     49.7
 4     4 Sampling     Population <df [25 × 42]>     46.2
 5     5 Sampling     Population <df [25 × 42]>     50.6
 6     6 Sampling     Population <df [25 × 42]>     47.8
 7     7 Sampling     Population <df [25 × 42]>     46.3
 8     8 Sampling     Population <df [25 × 42]>     41.4
 9     9 Sampling     Population <df [25 × 42]>     45.4
10    10 Sampling     Population <df [25 × 42]>     48.8
# ℹ 990 more rows
…
